{
  "edges": [
    {
      "node1": {
        "hostname": "sw-1",
        "interfaceName": "xe-0/0/1"
      },
      "node2": {
        "hostname": "rtr-1",
        "interfaceName": "xe-0/0/1"
      }
    },
    {
      "node1": {
        "hostname": "sw-1",
        "interfaceName": "xe-0/0/2"
      },
      "node2": {
        "hostname": "rtr-2",
        "interfaceName": "xe-0/0/2"
      }
    }
  ]
}